team8/top_out.vcd
$date
	Thu Dec 16 15:17:56 2021
$end
$version
	Icarus Verilog
$end
$timescale
	1ps
$end
$scope module tb_top $end
$var wire 1 ! sound $end
$var wire 7 " out [6:0] $end
$var reg 1 # car $end
$var reg 1 $ clk $end
$var reg 4 % hipass_out [3:0] $end
$var reg 1 & rst $end
$scope module uut $end
$var wire 1 # car $end
$var wire 1 $ clk $end
$var wire 4 ' hipass_out [3:0] $end
$var wire 1 & rst $end
$var wire 1 ! sound $end
$var wire 7 ( out [6:0] $end
$var wire 4 ) hipass_sync [3:0] $end
$var wire 4 * hipass_in [3:0] $end
$var wire 2 + en [1:0] $end
$var wire 1 , car_sync $end
$var reg 4 - hipass [3:0] $end
$scope module counter $end
$var wire 1 # car $end
$var wire 1 $ clk $end
$var wire 1 & rst $end
$var wire 4 . hipass_in [3:0] $end
$var wire 2 / en [1:0] $end
$var reg 3 0 count [2:0] $end
$var reg 4 1 hipass [3:0] $end
$scope module delay $end
$var wire 1 $ clk $end
$var wire 4 2 in [3:0] $end
$var wire 1 & rst $end
$var reg 4 3 in_d [3:0] $end
$var reg 4 4 out [3:0] $end
$upscope $end
$upscope $end
$scope module interface $end
$var wire 1 # car $end
$var wire 1 $ clk $end
$var wire 4 5 hipass_in [3:0] $end
$var wire 4 6 hipass_out [3:0] $end
$var wire 1 & rst $end
$var wire 1 7 hipass_on $end
$var wire 2 8 en [1:0] $end
$var reg 1 9 car_d $end
$var reg 1 , car_sync $end
$var reg 4 : hipass_d [3:0] $end
$var reg 4 ; hipass_sync [3:0] $end
$upscope $end
$scope module moore $end
$var wire 1 , car $end
$var wire 1 $ clk $end
$var wire 4 < hipass [3:0] $end
$var wire 1 & rst $end
$var reg 2 = currentstate [1:0] $end
$var reg 2 > nextstate [1:0] $end
$upscope $end
$scope module out_state $end
$var wire 1 $ clk $end
$var wire 2 ? en [1:0] $end
$var wire 4 @ hipass [3:0] $end
$var wire 1 & rst $end
$var wire 1 A sound_end $end
$var wire 4 B hipass_sig [3:0] $end
$var reg 7 C out [6:0] $end
$var reg 1 ! sound $end
$scope module count_sound $end
$var wire 1 $ clk $end
$var wire 1 ! en $end
$var wire 1 A sound_end $end
$var reg 4 D count [3:0] $end
$upscope $end
$scope module in_delay $end
$var wire 1 $ clk $end
$var wire 4 E in [3:0] $end
$var wire 1 & rst $end
$var reg 4 F in_d [3:0] $end
$var reg 4 G out [3:0] $end
$upscope $end
$upscope $end
$upscope $end
$upscope $end
$enddefinitions $end
#0
$dumpvars
b0 G
b0 F
b0 E
b0 D
b0 C
b0 B
1A
b0 @
b0 ?
b0 >
b0 =
b0 <
b0 ;
b0 :
09
b0 8
07
b0 6
b0 5
b0 4
b0 3
b0 2
b0 1
b0 0
b0 /
b0 .
b0 -
0,
b0 +
b0 *
b0 )
b0 (
b0 '
1&
b0 %
0$
0#
b0 "
0!
$end
#1000
1$
#2000
0$
#3000
1$
#4000
19
0$
1#
#5000
09
1$
#6000
0$
#7000
1$
#8000
0$
0#
#9000
1$
#10000
0$
#11000
1$
#12000
b1110 :
17
0$
b1110 %
b1110 '
b1110 6
#13000
b0 :
1$
#14000
0$
#15000
1$
#16000
07
0$
b0 %
b0 '
b0 6
#17000
1$
#18000
0$
#19000
1$
#20000
b1 >
0$
0&
#21000
b1 +
b1 /
b1 8
b1 =
b1 ?
1$
#22000
0$
#23000
1$
#24000
19
0$
1#
#25000
09
1,
1$
#26000
0$
#27000
b10 >
0,
1$
#28000
0$
0#
#29000
b10 +
b10 /
b10 8
b10 =
b10 ?
1$
#30000
0$
#31000
b1 0
1$
#32000
b1110 :
17
0$
b1110 %
b1110 '
b1110 6
#33000
b1110 -
b1110 <
b1110 @
b1110 E
b0 :
b1110 )
b1110 ;
b10 0
1$
#34000
0$
#35000
b0 -
b0 <
b0 @
b0 E
b1110 F
b11 >
b0 )
b0 ;
b11 0
1$
#36000
07
0$
b0 %
b0 '
b0 6
#37000
b11 +
b11 /
b11 8
b11 =
b11 ?
b1110 B
b1110 G
b0 F
b0 0
1$
#38000
b100001 "
b100001 (
b100001 C
0$
#39000
b0 B
b0 G
b1 >
1$
#40000
b0 "
b0 (
b0 C
19
0$
1#
#41000
b1 +
b1 /
b1 8
b1 =
b1 ?
1$
#42000
0$
#43000
09
1,
1$
#44000
0$
0#
#45000
b10 >
0,
1$
#46000
0$
#47000
b10 +
b10 /
b10 8
b10 =
b10 ?
1$
#48000
19
0$
1#
#49000
b1111 1
b1111 2
1$
#50000
0$
#51000
b1111 3
1$
#52000
0$
0#
#53000
b1111 -
b1111 <
b1111 @
b1111 E
b0 1
b0 2
b1111 *
b1111 .
b1111 4
b1111 5
b1 0
1$
#54000
0$
#55000
b0 3
b1111 F
b11 >
b10 0
1$
#56000
b100 :
17
0$
b100 %
b100 '
b100 6
#57000
b100 -
b100 <
b100 @
b100 E
b0 :
b100 )
b100 ;
b11 +
b11 /
b11 8
b11 =
b11 ?
b1111 B
b1111 G
b0 *
b0 .
b0 4
b0 5
b0 0
1$
#58000
b1 D
1!
0$
#59000
b0 -
b0 <
b0 @
b0 E
b100 F
b1 >
b0 )
b0 ;
b10 D
1$
#60000
b11 D
07
0$
b0 %
b0 '
b0 6
#61000
b1 +
b1 /
b1 8
b1 =
b1 ?
b100 B
b100 G
b0 F
b100 D
1$
#62000
b101 D
0$
#63000
b0 B
b0 G
09
1,
b110 D
1$
#64000
b111 D
19
0$
1#
#65000
b10 >
09
b1000 D
1$
#66000
b1001 D
0$
#67000
b10 +
b10 /
b10 8
b10 =
b10 ?
0,
b1010 D
1$
#68000
b1011 D
0$
0#
#69000
b1100 D
b1 0
1$
#70000
b1101 D
0$
#71000
b1110 D
b10 0
1$
#72000
0A
b1111 D
0$
#73000
1A
0!
b0 D
b11 0
1$
#74000
0$
#75000
b100 0
1$
#76000
0$
#77000
b101 0
1$
#78000
0$
#79000
b110 0
1$
#80000
0$
#81000
b1111 1
b1111 2
b111 0
1$
#82000
0$
#83000
b0 1
b0 2
b1111 3
b0 0
1$
#84000
0$
#85000
b1111 -
b1111 <
b1111 @
b1111 E
b1111 *
b1111 .
b1111 4
b1111 5
b0 3
b1 0
1$
#86000
0$
#87000
b0 -
b0 <
b0 @
b0 E
b0 *
b0 .
b0 4
b0 5
b1111 F
b11 >
b10 0
1$
#88000
0$
#89000
b11 +
b11 /
b11 8
b11 =
b11 ?
b1111 B
b1111 G
b0 F
b0 0
1$
#90000
b1 D
1!
0$
#91000
b0 B
b0 G
b1 >
b10 D
1$
#92000
b11 D
0$
#93000
b1 +
b1 /
b1 8
b1 =
b1 ?
b100 D
1$
#94000
b101 D
0$
#95000
b110 D
1$
#96000
b111 D
0$
#97000
b1000 D
1$
#98000
b1001 D
0$
#99000
b1010 D
1$
#100000
b1011 D
0$
#101000
b1100 D
1$
#102000
b1101 D
0$
#103000
b1110 D
1$
#104000
0A
b1111 D
0$
#105000
1A
0!
b0 D
1$
